sim/tb_cache_dma.vcd
$date
  Sun Feb 21 16:48:47 2021
$end
$version
  GHDL v0
$end
$timescale
  1 fs
$end
$scope module standard $end
$upscope $end
$scope module std_logic_1164 $end
$upscope $end
$scope module numeric_std $end
$upscope $end
$scope module riscv_32i $end
$upscope $end
$scope module helpers $end
$upscope $end
$scope module tb_helpers $end
$upscope $end
$scope module tb_cache_dma $end
$var reg 1 ! clk $end
$var reg 1 " rst $end
$var reg 1 # rw $end
$var reg 32 $ dma_data_in[31:0] $end
$var reg 32 % dma_address_out[31:0] $end
$var reg 32 & dma_address_in[31:0] $end
$var reg 32 ' dma_data_out[31:0] $end
$var reg 32 ( dat_out[31:0] $end
$var reg 32 ) dat_in[31:0] $end
$var reg 32 * add_in[31:0] $end
$var reg 32 + add_pc[31:0] $end
$var reg 32 , dat_pc[31:0] $end
$var reg 2 - mem_len[1:0] $end
$var reg 1 . tbclock $end
$var reg 1 / tbsimended $end
$scope module dut $end
$var reg 1 0 clk $end
$var reg 1 1 rst $end
$var reg 1 2 rw $end
$var reg 32 3 dma_data_in[31:0] $end
$var reg 32 4 dma_address_out[31:0] $end
$var reg 32 5 dma_address_in[31:0] $end
$var reg 32 6 dma_data_out[31:0] $end
$var reg 32 7 dat_out[31:0] $end
$var reg 32 8 dat_in[31:0] $end
$var reg 32 9 add_in[31:0] $end
$var reg 32 : add_pc[31:0] $end
$var reg 32 ; dat_pc[31:0] $end
$var reg 2 < mem_len[1:0] $end
$var reg 2049 = mem[2048:0] $end
$upscope $end
$upscope $end
$enddefinitions $end
#0
0!
0"
0#
b00000000000000000000000000000000 $
b00000000000000000000000000000000 %
b00000000000000000000000000000000 &
b00000000000000000000000000000000 '
b00000000000000000000000000000000 (
b00000000000000000000000000000000 )
b00000000000000000000000000000000 *
b00000000000000000000000000000000 +
b00000000000000000000000000000000 ,
b00 -
0.
0/
00
01
02
b00000000000000000000000000000000 3
b00000000000000000000000000000000 4
b00000000000000000000000000000000 5
b00000000000000000000000000000000 6
b00000000000000000000000000000000 7
b00000000000000000000000000000000 8
b00000000000000000000000000000000 9
b00000000000000000000000000000000 :
b00000000000000000000000000000000 ;
b00 <
b000000000000000000000000000000000000000000000000000000000000000000000000000000000000000000000000000000000000000000000000000000000000000000000000000000000000000000000000000000000000000000000000000000000000000000000000000000000000000000000000000000000000000000000000000000000000000000000000000000000000000000000000000000000000000000000000000000000000000000000000000000000000000000000000000000000000000000000000000000000000000000000000000000000000000000000000000000000000000000000000000000000000000000000000000000000000000000000000000000000000000000000000000000000000000000000000000000000000000000000000000000000000000000000000000000000000000000000000000000000000000000000000000000000000000000000000000000000000000000000000000000000000000000000000000000000000000000000000000000000000000000000000000000000000000000000000000000000000000000000000000000000000000000000000000000000000000000000000000000000000000000000000000000000000000000000000000000000000000000000000000000000000000000000000000000000000000000000000000000000000000000000000000000000000000000000000000000000000000000000000000000000000000000000000000000000000000000000000000000000000000000000000000000000000000000000000000000000000000000000000000000000000000000000000000000000000000000000000000000000000000000000000000000000000000000000000000000000000000000000000000000000000000000000000000000000000000000000000000000000000000000000000000000000000000000000000000000000000000000000000000000000000000000000000000000000000000000000000000000000000000000000000000000000000000000000000000000000000000000000000000000000000000000000000000000000000000000000000000000000000000000000000000000000000000000000000000000000000000000000000000000000000000000000000000000000000000000000000000000000000000000000000000000000000000000000000000000000000000000000000000000000000000000000000000000000000000000000000000000000000000000000000000000000000000000000000000000000000000000000000000000000000000000000000000000000000000000000000000000000000000000000000000000000000000000000000000000000000000000000000000000000 =
#100000000
1"
11
#200000000
b00000000000000000000000000010000 %
b00000000000000000000000000001011 *
b00000000000000000000000000001100 +
b00000000000000000000000000010000 4
b00000000000000000000000000001011 9
b00000000000000000000000000001100 :
#500000000
1!
1.
10
#1000000000
0!
0.
00
#1200000000
1#
b00000000000000000000000000110101 $
b00000000000000000000000000010100 &
b00000000000000000000000001111000 )
b00000000000000000000000000001100 *
12
b00000000000000000000000000110101 3
b00000000000000000000000000010100 5
b00000000000000000000000001111000 8
b00000000000000000000000000001100 9
#1500000000
1!
1.
10
b000000000000000000000000000000000000000000000000000000000000000000000000000000000000000000000000000000000000000000000000000000000000000000000000000000000000000000000000000000000000000000000000000000000000000000000000000000000000000000000000000000000000000000000000000000000000000000000000000000000000000000000000000000000000000000000000000000000000000000000000000000000000000000000000000000000000000000000000000000000000000000000000000000000000000000000000000000000000000000000000000000000000000000000000000000000000000000000000000000000000000000000000000000000000000000000000000000000000000000000000000000000000000000000000000000000000000000000000000000000000000000000000000000000000000000000000000000000000000000000000000000000000000000000000000000000000000000000000000000000000000000000000000000000000000000000000000000000000000000000000000000000000000000000000000000000000000000000000000000000000000000000000000000000000000000000000000000000000000000000000000000000000000000000000000000000000000000000000000000000000000000000000000000000000000000000000000000000000000000000000000000000000000000000000000000000000000000000000000000000000000000000000000000000000000000000000000000000000000000000000000000000000000000000000000000000000000000000000000000000000000000000000000000000000000000000000000000000000000000000000000000000000000000000000000000000000000000000000000000000000000000000000000000000000000000000000000000000000000000000000000000000000000000000000000000000000000000000000000000000000000000000000000000000000000000000000000000000000000000000000000000000000000000000000000000000000000000000000000000000000000000000000000000000000000000000000000000000000000000000000000000000000000000000000000000000000000000000000000000000000000000000000000000000000000000000000000000000000000000000000000000000000000000000000000000000000000000000000000000000000000000000000000000000001101010000000000000000000000000000000000000000000000000000000001111000000000000000000000000000000000000000000000000000000000000000000000000000000000000000000000000000 =
#2000000000
0!
0.
00
#2200000000
0#
b00000000000000000000000000010100 %
02
b00000000000000000000000000010100 4
#2500000000
1!
b00000000000000000000000000110101 '
b00000000000000000000000001111000 (
b00000000000000000000000001111000 ,
1.
10
b00000000000000000000000000110101 6
b00000000000000000000000001111000 7
b00000000000000000000000001111000 ;
#3000000000
0!
0.
00
#3200000000
#3500000000
1!
1.
10
#4000000000
0!
0.
00
#4200000000
#4500000000
1!
1.
10
#5000000000
0!
0.
00
#5200000000
#5500000000
1!
1.
10
#6000000000
0!
0.
00
#6200000000
#6500000000
1!
1.
10
#7000000000
0!
0.
00
#7200000000
#7500000000
1!
1.
10
#8000000000
0!
0.
00
#8200000000
#8500000000
1!
1.
10
#9000000000
0!
0.
00
#9200000000
#9500000000
1!
1.
10
#10000000000
0!
0.
00
#10200000000
#10500000000
1!
1.
10
#11000000000
0!
0.
00
#11200000000
1/
