sim/tb_hart32i.vcd
$date
  Thu Feb 18 19:40:50 2021
$end
$version
  GHDL v0
$end
$timescale
  1 fs
$end
$scope module standard $end
$upscope $end
$scope module std_logic_1164 $end
$upscope $end
$scope module numeric_std $end
$upscope $end
$scope module riscv_32i $end
$upscope $end
$scope module assembler $end
$upscope $end
$scope module helpers $end
$upscope $end
$scope module tb_helpers $end
$upscope $end
$scope module tb_hart32i $end
$var reg 1 ! clk $end
$var reg 1 " rst $end
$var reg 32 # pc_out[31:0] $end
$var reg 32 $ pc_in[31:0] $end
$var reg 2 % memory_width[1:0] $end
$var reg 1 & memory_write $end
$var reg 32 ' memory_address[31:0] $end
$var reg 32 ( memory_store[31:0] $end
$var reg 32 ) memory_load[31:0] $end
$var reg 1 * tbclock $end
$var reg 1 + tbsimended $end
$scope module dut $end
$var reg 1 , clk $end
$var reg 1 - rst $end
$var reg 32 . pc_out[31:0] $end
$var reg 32 / pc_in[31:0] $end
$var reg 2 0 memory_width[1:0] $end
$var reg 1 1 memory_write $end
$var reg 32 2 memory_address[31:0] $end
$var reg 32 3 memory_store[31:0] $end
$var reg 32 4 memory_load[31:0] $end
$var reg 1 5 jump $end
$var reg 1 6 jump1 $end
$var reg 1 7 jump2 $end
$var reg 1 8 rst_0 $end
$var reg 1 9 rst_1 $end
$var reg 1 : rst_2 $end
$var reg 32 ; rs1_0[31:0] $end
$var reg 32 < rs2_0[31:0] $end
$var reg 32 = rs1_1[31:0] $end
$var reg 32 > rs2_1[31:0] $end
$var reg 32 ? inst_0[31:0] $end
$var reg 32 @ inst_1[31:0] $end
$var reg 32 A inst_2[31:0] $end
$var reg 32 B inst_3[31:0] $end
$var reg 5 C rs1_add[4:0] $end
$var reg 5 D rs2_add[4:0] $end
$var reg 5 E reg_address[4:0] $end
$var reg 32 F reg_data[31:0] $end
$var reg 32 G alu_data0[31:0] $end
$var reg 32 H alu_data1[31:0] $end
$var reg 1 I alu_select0 $end
$var reg 1 J alu_select1 $end
$var reg 32 K mem_data[31:0] $end
$var reg 1 L mem_select $end
$var reg 32 M pc_alu_read[31:0] $end
$var reg 32 N pc_alu_write[31:0] $end
$comment inst_enum0 is not handled $end
$comment inst_enum1 is not handled $end
$comment inst_enum2 is not handled $end
$var reg 1 O bubble_pause $end
$var reg 1 P bubble_reset $end
$scope module decode $end
$var reg 1 Q clk $end
$var reg 1 R rst $end
$var reg 32 S inst_in[31:0] $end
$var reg 5 T rs1_add[4:0] $end
$var reg 5 U rs2_add[4:0] $end
$var reg 32 V inst_out0[31:0] $end
$var reg 32 W inst_out1[31:0] $end
$comment inst_enum_out0 is not handled $end
$comment inst_enum_out1 is not handled $end
$var reg 1 X pause $end
$comment enum_save is not handled $end
$var reg 32 Y inst_save[31:0] $end
$upscope $end
$scope module int_register $end
$var reg 1 Z clk $end
$var reg 1 [ rst $end
$var reg 1 \ pause $end
$var reg 32 ] d_in[31:0] $end
$var reg 32 ^ d_out0[31:0] $end
$var reg 32 _ d_out1[31:0] $end
$var reg 5 ` adre0[4:0] $end
$var reg 5 a adre1[4:0] $end
$var reg 5 b adwr0[4:0] $end
$comment reg is not handled $end
$upscope $end
$scope module alu $end
$var reg 1 c clk $end
$var reg 1 d rst $end
$comment inst_enum_in is not handled $end
$comment inst_enum_out is not handled $end
$var reg 32 e inst_in[31:0] $end
$var reg 32 f inst_out[31:0] $end
$var reg 32 g rs1[31:0] $end
$var reg 32 h rs2[31:0] $end
$var reg 32 i data_out[31:0] $end
$var reg 1 j data_select $end
$var reg 1 k jump $end
$var reg 32 l pc_out[31:0] $end
$var reg 32 m pc_in[31:0] $end
$var reg 1 n rw_memory $end
$var reg 2 o memory_size[1:0] $end
$var reg 32 p data_memory[31:0] $end
$var reg 32 q address_memory[31:0] $end
$var reg 1 r branch_select $end
$var reg 1 s integer_select $end
$var reg 1 t data_select_sig $end
$var reg 32 u branch_data[31:0] $end
$var reg 32 v integer_data[31:0] $end
$var reg 32 w data[31:0] $end
$var reg 32 x inst_save[31:0] $end
$scope module int_alu $end
$var reg 1 y clk $end
$var reg 1 z rst $end
$var reg 32 { inst_in[31:0] $end
$comment inst_enum_in is not handled $end
$var reg 32 | rs1_in[31:0] $end
$var reg 32 } rs2_in[31:0] $end
$var reg 32 !" acc_out[31:0] $end
$var reg 1 "" acc_me $end
$upscope $end
$scope module branch_alu $end
$var reg 1 #" clk $end
$var reg 1 $" rst $end
$var reg 1 %" branch $end
$var reg 1 &" misaligned $end
$comment inst_enum_in is not handled $end
$var reg 32 '" inst_in[31:0] $end
$var reg 32 (" rs1_in[31:0] $end
$var reg 32 )" rs2_in[31:0] $end
$var reg 32 *" acc_out[31:0] $end
$var reg 32 +" pc_in[31:0] $end
$var reg 32 ," pc_out[31:0] $end
$var reg 1 -" acc_me $end
$upscope $end
$scope module mem_alu $end
$var reg 1 ." clk $end
$var reg 1 /" rst $end
$comment inst_enum_in is not handled $end
$var reg 32 0" inst_in[31:0] $end
$var reg 32 1" inst_out[31:0] $end
$var reg 32 2" rs1_in[31:0] $end
$var reg 32 3" rs2_in[31:0] $end
$var reg 1 4" rw $end
$var reg 32 5" data_store[31:0] $end
$var reg 32 6" address_out[31:0] $end
$var reg 2 7" mem_len[1:0] $end
$upscope $end
$upscope $end
$scope module alu_data_delay $end
$var reg 1 8" clk $end
$var reg 1 9" rst $end
$var reg 32 :" input[31:0] $end
$var reg 32 ;" output[31:0] $end
$upscope $end
$scope module alu_select_delay $end
$var reg 1 <" clk $end
$var reg 1 =" rst $end
$var reg 1 >" input $end
$var reg 1 ?" output $end
$upscope $end
$scope module memory_rx $end
$var reg 1 @" clk $end
$var reg 1 A" rst $end
$var reg 1 B" acc_me $end
$comment inst_enum_in is not handled $end
$var reg 32 C" inst_in[31:0] $end
$var reg 32 D" inst_out[31:0] $end
$var reg 32 E" data_in[31:0] $end
$var reg 32 F" data_out[31:0] $end
$upscope $end
$scope module acc $end
$var reg 32 G" inst_in[31:0] $end
$var reg 1 H" mem_select $end
$var reg 1 I" alu_select $end
$var reg 32 J" mem_data[31:0] $end
$var reg 32 K" alu_data[31:0] $end
$var reg 32 L" write_data[31:0] $end
$var reg 5 M" write_address[4:0] $end
$upscope $end
$scope module jump_buffer $end
$var reg 1 N" clk $end
$var reg 1 O" rst $end
$var reg 32 P" pc_in[31:0] $end
$var reg 1 Q" rst_in $end
$var reg 1 R" rst_d1 $end
$var reg 1 S" rst_d2 $end
$var reg 1 T" rst_d3 $end
$var reg 32 U" pc_d1[31:0] $end
$var reg 32 V" pc_d2[31:0] $end
$var reg 32 W" pc_d3[31:0] $end
$var reg 1 X" rst_d1s $end
$var reg 1 Y" rst_d2s $end
$var reg 1 Z" rst_d3s $end
$var reg 32 [" pc_d1s[31:0] $end
$var reg 32 \" pc_d2s[31:0] $end
$var reg 32 ]" pc_d3s[31:0] $end
$upscope $end
$scope module program_counter $end
$var reg 1 ^" clk $end
$var reg 1 _" rst $end
$var reg 1 `" branch $end
$var reg 1 a" pause $end
$var reg 32 b" pc_in[31:0] $end
$var reg 32 c" pc_out[31:0] $end
$var reg 32 d" reg[31:0] $end
$upscope $end
$scope module pipeline_controller $end
$var reg 1 e" clk $end
$var reg 1 f" rst $end
$var reg 1 g" bubble $end
$var reg 32 h" rs1_in[31:0] $end
$var reg 32 i" rs2_in[31:0] $end
$var reg 32 j" result_in[31:0] $end
$var reg 32 k" load_in[31:0] $end
$var reg 32 l" rs1_out[31:0] $end
$var reg 32 m" rs2_out[31:0] $end
$var reg 32 n" inst_in[31:0] $end
$comment inst_enum_in is not handled $end
$var reg 32 o" next_inst[31:0] $end
$comment next_inst_enum is not handled $end
$var reg 1 p" bubble_rs1 $end
$var reg 1 q" bubble_rs2 $end
$var reg 1 r" bypass_rs1 $end
$var reg 1 s" bypass_rs2 $end
$upscope $end
$upscope $end
$upscope $end
$enddefinitions $end
#0
0!
0"
b00000000000000000000000000000000 #
b00000000000000000000000000000000 $
bUU %
U&
bUUUUUUUUUUUUUUUUUUUUUUUUUUUUUUUU '
bUUUUUUUUUUUUUUUUUUUUUUUUUUUUUUUU (
b00000000000000000000000000000000 )
0*
0+
0,
0-
b00000000000000000000000000000000 .
b00000000000000000000000000000000 /
bUU 0
U1
bUUUUUUUUUUUUUUUUUUUUUUUUUUUUUUUU 2
bUUUUUUUUUUUUUUUUUUUUUUUUUUUUUUUU 3
b00000000000000000000000000000000 4
U5
06
07
08
09
0:
b00000000000000000000000000000000 ;
b00000000000000000000000000000000 <
b00000000000000000000000000000000 =
b00000000000000000000000000000000 >
bUUUUUUUUUUUUUUUUUUUUUUUUUUUUUUUU ?
bUUUUUUUUUUUUUUUUUUUUUUUUUUUUUUUU @
bUUUUUUUUUUUUUUUUUUUUUUUUUUUUUUUU A
bUUUUUUUUUUUUUUUUUUUUUUUUUUUUUUUU B
bUUUUU C
bUUUUU D
b00000 E
b00000000000000000000000000000000 F
b00000000000000000000000000000000 G
bUUUUUUUUUUUUUUUUUUUUUUUUUUUUUUUU H
UI
UJ
bUUUUUUUUUUUUUUUUUUUUUUUUUUUUUUUU K
UL
b00000000000000000000000000000000 M
bUUUUUUUUUUUUUUUUUUUUUUUUUUUUUUUU N
UO
0P
0Q
0R
b00000000000000000000000000000000 S
bUUUUU T
bUUUUU U
bUUUUUUUUUUUUUUUUUUUUUUUUUUUUUUUU V
bUUUUUUUUUUUUUUUUUUUUUUUUUUUUUUUU W
UX
bUUUUUUUUUUUUUUUUUUUUUUUUUUUUUUUU Y
0Z
0[
U\
b00000000000000000000000000000000 ]
b00000000000000000000000000000000 ^
b00000000000000000000000000000000 _
bUUUUU `
bUUUUU a
b00000 b
0c
0d
bUUUUUUUUUUUUUUUUUUUUUUUUUUUUUUUU e
bUUUUUUUUUUUUUUUUUUUUUUUUUUUUUUUU f
b00000000000000000000000000000000 g
b00000000000000000000000000000000 h
b00000000000000000000000000000000 i
Uj
Uk
bUUUUUUUUUUUUUUUUUUUUUUUUUUUUUUUU l
b00000000000000000000000000000000 m
Un
bUU o
bUUUUUUUUUUUUUUUUUUUUUUUUUUUUUUUU p
bUUUUUUUUUUUUUUUUUUUUUUUUUUUUUUUU q
Ur
Us
Ut
bUUUUUUUUUUUUUUUUUUUUUUUUUUUUUUUU u
bUUUUUUUUUUUUUUUUUUUUUUUUUUUUUUUU v
b00000000000000000000000000000000 w
bUUUUUUUUUUUUUUUUUUUUUUUUUUUUUUUU x
0y
0z
bUUUUUUUUUUUUUUUUUUUUUUUUUUUUUUUU {
b00000000000000000000000000000000 |
b00000000000000000000000000000000 }
bUUUUUUUUUUUUUUUUUUUUUUUUUUUUUUUU !"
U""
0#"
0$"
U%"
U&"
bUUUUUUUUUUUUUUUUUUUUUUUUUUUUUUUU '"
b00000000000000000000000000000000 ("
b00000000000000000000000000000000 )"
bUUUUUUUUUUUUUUUUUUUUUUUUUUUUUUUU *"
b00000000000000000000000000000000 +"
bUUUUUUUUUUUUUUUUUUUUUUUUUUUUUUUU ,"
U-"
0."
0/"
bUUUUUUUUUUUUUUUUUUUUUUUUUUUUUUUU 0"
bUUUUUUUUUUUUUUUUUUUUUUUUUUUUUUUU 1"
b00000000000000000000000000000000 2"
b00000000000000000000000000000000 3"
U4"
bUUUUUUUUUUUUUUUUUUUUUUUUUUUUUUUU 5"
bUUUUUUUUUUUUUUUUUUUUUUUUUUUUUUUU 6"
bUU 7"
08"
09"
b00000000000000000000000000000000 :"
bUUUUUUUUUUUUUUUUUUUUUUUUUUUUUUUU ;"
0<"
0="
U>"
U?"
0@"
0A"
UB"
bUUUUUUUUUUUUUUUUUUUUUUUUUUUUUUUU C"
bUUUUUUUUUUUUUUUUUUUUUUUUUUUUUUUU D"
b00000000000000000000000000000000 E"
bUUUUUUUUUUUUUUUUUUUUUUUUUUUUUUUU F"
bUUUUUUUUUUUUUUUUUUUUUUUUUUUUUUUU G"
UH"
UI"
bUUUUUUUUUUUUUUUUUUUUUUUUUUUUUUUU J"
bUUUUUUUUUUUUUUUUUUUUUUUUUUUUUUUU K"
b00000000000000000000000000000000 L"
b00000 M"
0N"
0O"
b00000000000000000000000000000000 P"
UQ"
0R"
0S"
0T"
b00000000000000000000000000000000 U"
b00000000000000000000000000000000 V"
b00000000000000000000000000000000 W"
0X"
0Y"
0Z"
b00000000000000000000000000000000 ["
b00000000000000000000000000000000 \"
b00000000000000000000000000000000 ]"
0^"
0_"
U`"
Ua"
bUUUUUUUUUUUUUUUUUUUUUUUUUUUUUUUU b"
b00000000000000000000000000000000 c"
b00000000000000000000000000000000 d"
0e"
0f"
Ug"
b00000000000000000000000000000000 h"
b00000000000000000000000000000000 i"
b00000000000000000000000000000000 j"
bUUUUUUUUUUUUUUUUUUUUUUUUUUUUUUUU k"
b00000000000000000000000000000000 l"
b00000000000000000000000000000000 m"
bUUUUUUUUUUUUUUUUUUUUUUUUUUUUUUUU n"
bUUUUUUUUUUUUUUUUUUUUUUUUUUUUUUUU o"
Up"
Uq"
Ur"
Us"
#500000000
1!
b00 %
0&
b00000000000000000000000000000000 '
b00000000000000000000000000000000 (
1*
1,
b00 0
01
b00000000000000000000000000000000 2
b00000000000000000000000000000000 3
05
b00000000000000000000000000000000 ?
b00000000000000000000000000000000 @
b00000000000000000000000000000000 A
b00000000000000000000000000000000 B
b00000 C
b00000 D
b00000000000000000000000000000000 H
0I
0J
b00000000000000000000000000000000 K
0L
b00000000000000000000000000000000 N
0O
1Q
b00000 T
b00000 U
b00000000000000000000000000000000 V
b00000000000000000000000000000000 W
0X
b00000000000000000000000000000000 Y
1Z
0\
b00000 `
b00000 a
1c
b00000000000000000000000000000000 e
b00000000000000000000000000000000 f
0j
0k
b00000000000000000000000000000000 l
0n
b00 o
b00000000000000000000000000000000 p
b00000000000000000000000000000000 q
0r
0s
0t
b00000000000000000000000000000000 u
b00000000000000000000000000000000 v
b00000000000000000000000000000000 x
1y
b00000000000000000000000000000000 {
b00000000000000000000000000000000 !"
0""
1#"
0%"
0&"
b00000000000000000000000000000000 '"
b00000000000000000000000000000000 *"
b00000000000000000000000000000000 ,"
0-"
1."
b00000000000000000000000000000000 0"
b00000000000000000000000000000000 1"
04"
b00000000000000000000000000000000 5"
b00000000000000000000000000000000 6"
b00 7"
18"
b00000000000000000000000000000000 ;"
1<"
0>"
0?"
1@"
0B"
b00000000000000000000000000000000 C"
b00000000000000000000000000000000 D"
b00000000000000000000000000000000 F"
b00000000000000000000000000000000 G"
0H"
0I"
b00000000000000000000000000000000 J"
b00000000000000000000000000000000 K"
1N"
0Q"
1^"
0`"
0a"
b00000000000000000000000000000000 b"
1e"
0g"
b00000000000000000000000000000000 k"
b00000000000000000000000000000000 n"
b00000000000000000000000000000000 o"
0p"
0q"
0r"
0s"
#1000000000
0!
0*
0,
0Q
0Z
0c
0y
0#"
0."
08"
0<"
0@"
0N"
0^"
0e"
#1100000000
1"
1-
18
19
1:
1P
1R
1[
1d
1z
1$"
1/"
19"
1="
1A"
1O"
1_"
1f"
#1200000000
b00000000010100000000000010010011 $
b00000000010100000000000010010011 /
b00000000010100000000000010010011 S
b00000000010100000000000010010011 P"
#1500000000
1!
b00000000000000000000000000000100 #
1*
1,
b00000000000000000000000000000100 .
b00000000010100000000000010010011 ?
b00101 D
1Q
b00101 U
b00000000010100000000000010010011 V
b00000000010100000000000010010011 Y
1Z
b00101 a
1c
1y
0""
1#"
1."
18"
1<"
1@"
1N"
b00000000010100000000000010010011 U"
b00000000010100000000000010010011 ["
1^"
b00000000000000000000000000000100 c"
b00000000000000000000000000000100 d"
1e"
b00000000010100000000000010010011 o"
#2000000000
0!
0*
0,
b00000000010100000000000010010011 M
0Q
0Z
0c
b00000000010100000000000010010011 m
0y
0#"
b00000000010100000000000010010011 +"
0."
08"
0<"
0@"
0N"
b00000000010100000000000010010011 V"
b00000000010100000000000010010011 \"
0^"
0e"
#2200000000
b00000000000100000000000100010011 $
b00000000000100000000000100010011 /
b00000000000100000000000100010011 S
b00000000000100000000000100010011 P"
#2500000000
1!
b00000000000000000000000000001000 #
1*
1,
b00000000000000000000000000001000 .
b00000000000100000000000100010011 ?
b00000000010100000000000010010011 @
b00001 D
1I
1Q
b00001 U
b00000000000100000000000100010011 V
b00000000010100000000000010010011 W
b00000000000100000000000100010011 Y
1Z
b00001 a
1c
b00000000010100000000000010010011 e
1j
1r
1t
1y
b00000000010100000000000010010011 {
0""
1#"
b00000000010100000000000010010011 '"
1-"
1."
b00000000010100000000000010010011 0"
18"
1<"
1>"
1@"
1N"
b00000000000100000000000100010011 U"
b00000000010100000000000010010011 W"
b00000000000100000000000100010011 ["
b00000000010100000000000010010011 ]"
1^"
b00000000000000000000000000001000 c"
b00000000000000000000000000001000 d"
1e"
b00000000010100000000000010010011 n"
b00000000000100000000000100010011 o"
#3000000000
0!
0*
0,
b00000000000100000000000100010011 M
0Q
0Z
0c
b00000000000100000000000100010011 m
0y
0#"
b00000000000100000000000100010011 +"
0."
08"
0<"
0@"
0N"
b00000000000100000000000100010011 V"
b00000000000100000000000100010011 \"
0^"
0e"
#3200000000
b00000000000000000000000000010011 $
b00000000000000000000000000010011 /
b00000000000000000000000000010011 S
b00000000000000000000000000010011 P"
#3500000000
1!
b00000000000000000000000000001100 #
1*
1,
b00000000000000000000000000001100 .
b00000000000000000000000000010011 ?
b00000000000100000000000100010011 @
b00000000010100000000000010010011 A
b00000 D
b00000000000000000000000000000101 G
1J
1Q
b00000 U
b00000000000000000000000000010011 V
b00000000000100000000000100010011 W
b00000000000000000000000000010011 Y
1Z
b00000 a
1c
b00000000000100000000000100010011 e
b00000000010100000000000010010011 f
b00000000000000000000000000000101 i
0r
1s
b00000000000000000000000000000101 v
b00000000000000000000000000000101 w
b00000000010100000000000010010011 x
1y
b00000000000100000000000100010011 {
b00000000000000000000000000000101 !"
1""
1#"
b00000000000100000000000100010011 '"
0-"
1."
b00000000000100000000000100010011 0"
b00000000010100000000000010010011 1"
18"
b00000000000000000000000000000101 :"
1<"
1?"
1@"
b00000000010100000000000010010011 C"
1I"
1N"
b00000000000000000000000000010011 U"
b00000000000100000000000100010011 W"
b00000000000000000000000000010011 ["
b00000000000100000000000100010011 ]"
1^"
b00000000000000000000000000001100 c"
b00000000000000000000000000001100 d"
1e"
b00000000000000000000000000000101 j"
b00000000000100000000000100010011 n"
b00000000000000000000000000010011 o"
#4000000000
0!
0*
0,
b00000000000000000000000000010011 M
0Q
0Z
0c
b00000000000000000000000000010011 m
0y
0#"
b00000000000000000000000000010011 +"
0."
08"
0<"
0@"
0N"
b00000000000000000000000000010011 V"
b00000000000000000000000000010011 \"
0^"
0e"
#4200000000
#4500000000
1!
b00000000000000000000000000010000 #
1*
1,
b00000000000000000000000000010000 .
b00000000000000000000000000010011 @
b00000000000100000000000100010011 A
b00000000010100000000000010010011 B
b00001 E
b00000000000000000000000000000101 F
b00000000000000000000000000000001 G
b00000000000000000000000000000101 H
1Q
b00000000000000000000000000010011 W
1Z
b00000000000000000000000000000101 ]
b00001 b
1c
b00000000000000000000000000010011 e
b00000000000100000000000100010011 f
b00000000000000000000000000000001 i
b00000000000000000000000000000001 v
b00000000000000000000000000000001 w
b00000000000100000000000100010011 x
1y
b00000000000000000000000000010011 {
b00000000000000000000000000000001 !"
1#"
b00000000000000000000000000010011 '"
1."
b00000000000000000000000000010011 0"
b00000000000100000000000100010011 1"
18"
b00000000000000000000000000000001 :"
b00000000000000000000000000000101 ;"
1<"
1@"
b00000000000100000000000100010011 C"
b00000000010100000000000010010011 D"
b00000000010100000000000010010011 G"
b00000000000000000000000000000101 K"
b00000000000000000000000000000101 L"
b00001 M"
1N"
b00000000000000000000000000010011 W"
b00000000000000000000000000010011 ]"
1^"
b00000000000000000000000000010000 c"
b00000000000000000000000000010000 d"
1e"
b00000000000000000000000000000001 j"
b00000000000000000000000000010011 n"
#5000000000
0!
0*
0,
0Q
0Z
0c
0y
0#"
0."
08"
0<"
0@"
0N"
0^"
0e"
#5200000000
b00000000000100000001000000100011 $
b00000000000100000001000000100011 /
b00000000000100000001000000100011 S
b00000000000100000001000000100011 P"
#5500000000
1!
b00000000000000000000000000010100 #
1*
1,
b00000000000000000000000000010100 .
b00000000000100000001000000100011 ?
b00000000000000000000000000010011 A
b00000000000100000000000100010011 B
b00001 D
b00010 E
b00000000000000000000000000000001 F
b00000000000000000000000000000000 G
b00000000000000000000000000000001 H
1Q
b00001 U
b00000000000100000001000000100011 V
b00000000000100000001000000100011 Y
1Z
b00000000000000000000000000000001 ]
b00001 a
b00010 b
1c
b00000000000000000000000000010011 f
b00000000000000000000000000000000 i
b00000000000000000000000000000000 v
b00000000000000000000000000000000 w
b00000000000000000000000000010011 x
1y
b00000000000000000000000000000000 !"
1#"
1."
b00000000000000000000000000010011 1"
18"
b00000000000000000000000000000000 :"
b00000000000000000000000000000001 ;"
1<"
1@"
b00000000000000000000000000010011 C"
b00000000000100000000000100010011 D"
b00000000000100000000000100010011 G"
b00000000000000000000000000000001 K"
b00000000000000000000000000000001 L"
b00010 M"
1N"
b00000000000100000001000000100011 U"
b00000000000100000001000000100011 ["
1^"
b00000000000000000000000000010100 c"
b00000000000000000000000000010100 d"
1e"
b00000000000000000000000000000000 j"
b00000000000100000001000000100011 o"
#6000000000
0!
0*
0,
b00000000000100000001000000100011 M
0Q
0Z
0c
b00000000000100000001000000100011 m
0y
0#"
b00000000000100000001000000100011 +"
0."
08"
0<"
0@"
0N"
b00000000000100000001000000100011 V"
b00000000000100000001000000100011 \"
0^"
0e"
#6200000000
b00000000000000000000000000010011 $
b00000000000000000000000000010011 /
b00000000000000000000000000010011 S
b00000000000000000000000000010011 P"
#6500000000
1!
b00000000000000000000000000011000 #
1*
1,
b00000000000000000000000000011000 .
b00000000000000000000000000000101 <
b00000000000000000000000000000101 >
b00000000000000000000000000010011 ?
b00000000000100000001000000100011 @
b00000000000000000000000000010011 B
b00000 D
b00000 E
b00000000000000000000000000000000 F
b00000000000000000000000000000000 H
1Q
b00000 U
b00000000000000000000000000010011 V
b00000000000100000001000000100011 W
b00000000000000000000000000010011 Y
1Z
b00000000000000000000000000000000 ]
b00000000000000000000000000000101 _
b00000 a
b00000 b
1c
b00000000000100000001000000100011 e
b00000000000000000000000000000101 h
1y
b00000000000100000001000000100011 {
b00000000000000000000000000000101 }
1#"
b00000000000100000001000000100011 '"
b00000000000000000000000000000101 )"
1."
b00000000000100000001000000100011 0"
b00000000000000000000000000000101 3"
18"
b00000000000000000000000000000000 ;"
1<"
1@"
b00000000000000000000000000010011 D"
b00000000000000000000000000010011 G"
b00000000000000000000000000000000 K"
b00000000000000000000000000000000 L"
b00000 M"
1N"
b00000000000000000000000000010011 U"
b00000000000100000001000000100011 W"
b00000000000000000000000000010011 ["
b00000000000100000001000000100011 ]"
1^"
b00000000000000000000000000011000 c"
b00000000000000000000000000011000 d"
1e"
b00000000000000000000000000000101 i"
b00000000000000000000000000000101 m"
b00000000000100000001000000100011 n"
b00000000000000000000000000010011 o"
#7000000000
0!
0*
0,
b00000000000000000000000000010011 M
0Q
0Z
0c
b00000000000000000000000000010011 m
0y
0#"
b00000000000000000000000000010011 +"
0."
08"
0<"
0@"
0N"
b00000000000000000000000000010011 V"
b00000000000000000000000000010011 \"
0^"
0e"
#7200000000
#7500000000
1!
b00000000000000000000000000011100 #
b01 %
1&
b00000000000000000000000000000101 (
1*
1,
b00000000000000000000000000011100 .
b01 0
11
b00000000000000000000000000000101 3
b00000000000000000000000000000000 <
b00000000000000000000000000000000 >
b00000000000000000000000000010011 @
b00000000000100000001000000100011 A
0I
1Q
b00000000000000000000000000010011 W
1Z
b00000000000000000000000000000000 _
1c
b00000000000000000000000000010011 e
b00000000000100000001000000100011 f
b00000000000000000000000000000000 h
0j
1n
b01 o
b00000000000000000000000000000101 p
0s
0t
b00000000000100000001000000100011 x
1y
b00000000000000000000000000010011 {
b00000000000000000000000000000000 }
0""
1#"
b00000000000000000000000000010011 '"
b00000000000000000000000000000000 )"
1."
b00000000000000000000000000010011 0"
b00000000000100000001000000100011 1"
b00000000000000000000000000000000 3"
14"
b00000000000000000000000000000101 5"
b01 7"
18"
1<"
0>"
1@"
b00000000000100000001000000100011 C"
1N"
b00000000000000000000000000010011 W"
b00000000000000000000000000010011 ]"
1^"
b00000000000000000000000000011100 c"
b00000000000000000000000000011100 d"
1e"
b00000000000000000000000000000000 i"
b00000000000000000000000000000000 m"
b00000000000000000000000000010011 n"
#8000000000
0!
0*
0,
0Q
0Z
0c
0y
0#"
0."
08"
0<"
0@"
0N"
0^"
0e"
#8200000000
#8500000000
1!
b00000000000000000000000000100000 #
0&
1*
1,
b00000000000000000000000000100000 .
01
b00000000000000000000000000010011 A
b00000000000100000001000000100011 B
1I
0J
1Q
1Z
1c
b00000000000000000000000000010011 f
1j
0n
1s
1t
b00000000000000000000000000010011 x
1y
1""
1#"
1."
b00000000000000000000000000010011 1"
04"
18"
1<"
1>"
0?"
1@"
b00000000000000000000000000010011 C"
b00000000000100000001000000100011 D"
b00000000000100000001000000100011 G"
0I"
1N"
1^"
b00000000000000000000000000100000 c"
b00000000000000000000000000100000 d"
1e"
#9000000000
0!
0*
0,
0Q
0Z
0c
0y
0#"
0."
08"
0<"
0@"
0N"
0^"
0e"
#9200000000
#9500000000
1!
b00000000000000000000000000100100 #
1*
1,
b00000000000000000000000000100100 .
b00000000000000000000000000010011 B
1J
1Q
1Z
1c
1y
1#"
1."
18"
1<"
1?"
1@"
b00000000000000000000000000010011 D"
b00000000000000000000000000010011 G"
1I"
1N"
1^"
b00000000000000000000000000100100 c"
b00000000000000000000000000100100 d"
1e"
#10000000000
0!
0*
0,
0Q
0Z
0c
0y
0#"
0."
08"
0<"
0@"
0N"
0^"
0e"
#10200000000
#10500000000
1!
b00000000000000000000000000101000 #
1*
1,
b00000000000000000000000000101000 .
1Q
1Z
1c
1y
1#"
1."
18"
1<"
1@"
1N"
1^"
b00000000000000000000000000101000 c"
b00000000000000000000000000101000 d"
1e"
#11000000000
0!
0*
0,
0Q
0Z
0c
0y
0#"
0."
08"
0<"
0@"
0N"
0^"
0e"
#11200000000
#11500000000
1!
b00000000000000000000000000101100 #
1*
1,
b00000000000000000000000000101100 .
1Q
1Z
1c
1y
1#"
1."
18"
1<"
1@"
1N"
1^"
b00000000000000000000000000101100 c"
b00000000000000000000000000101100 d"
1e"
#12000000000
0!
0*
0,
0Q
0Z
0c
0y
0#"
0."
08"
0<"
0@"
0N"
0^"
0e"
#12200000000
#12500000000
1!
b00000000000000000000000000110000 #
1*
1,
b00000000000000000000000000110000 .
1Q
1Z
1c
1y
1#"
1."
18"
1<"
1@"
1N"
1^"
b00000000000000000000000000110000 c"
b00000000000000000000000000110000 d"
1e"
#13000000000
0!
0*
0,
0Q
0Z
0c
0y
0#"
0."
08"
0<"
0@"
0N"
0^"
0e"
#13200000000
1+
