sim/tb_mem_access_rx.vcd
$date
  Sun Feb  7 21:55:07 2021
$end
$version
  GHDL v0
$end
$timescale
  1 fs
$end
$scope module standard $end
$upscope $end
$scope module std_logic_1164 $end
$upscope $end
$scope module numeric_std $end
$upscope $end
$scope module riscv_32i $end
$upscope $end
$scope module assembler $end
$upscope $end
$scope module helpers $end
$upscope $end
$scope module tb_helpers $end
$upscope $end
$scope module tb_mem_access_rx $end
$var reg 1 ! clk $end
$var reg 1 " rst $end
$var reg 1 # acc_me $end
$var reg 32 $ inst_in[31:0] $end
$var reg 32 % inst_out[31:0] $end
$var reg 32 & data_in[31:0] $end
$var reg 32 ' data_out[31:0] $end
$var reg 1 ( tbclock $end
$var reg 1 ) tbsimended $end
$scope module dut $end
$var reg 1 * clk $end
$var reg 1 + rst $end
$var reg 1 , acc_me $end
$var reg 32 - inst_in[31:0] $end
$var reg 32 . inst_out[31:0] $end
$var reg 32 / data_in[31:0] $end
$var reg 32 0 data_out[31:0] $end
$upscope $end
$upscope $end
$enddefinitions $end
#0
0!
0"
0#
b00000000000000000000000000000000 $
b00000000000000000000000000000000 %
b00000000000000000000000000000000 &
b00000000000000000000000000000000 '
0(
0)
0*
0+
0,
b00000000000000000000000000000000 -
b00000000000000000000000000000000 .
b00000000000000000000000000000000 /
b00000000000000000000000000000000 0
#100000000
1"
1+
#200000000
b00000000000000000000000000000011 $
b00000000000000000000000011111111 &
b00000000000000000000000000000011 -
b00000000000000000000000011111111 /
#500000000
1!
1#
b00000000000000000000000000000011 %
b11111111111111111111111111111111 '
1(
1*
1,
b00000000000000000000000000000011 .
b11111111111111111111111111111111 0
#1000000000
0!
0(
0*
#1200000000
b00000001111000100001111010000011 $
b00000000000000000001000001101000 &
b00000001111000100001111010000011 -
b00000000000000000001000001101000 /
#1500000000
1!
b00000001111000100001111010000011 %
b00000000000000000001000001101000 '
1(
1*
b00000001111000100001111010000011 .
b00000000000000000001000001101000 0
#2000000000
0!
0(
0*
#2200000000
b00000000000000000010000000000011 $
b11111111111111111111111111111111 &
b00000000000000000010000000000011 -
b11111111111111111111111111111111 /
#2500000000
1!
b00000000000000000010000000000011 %
b11111111111111111111111111111111 '
1(
1*
b00000000000000000010000000000011 .
b11111111111111111111111111111111 0
#3000000000
0!
0(
0*
#3200000000
b00000000000000000100000000000011 $
b00000000000000000100000000000011 -
#3500000000
1!
b00000000000000000100000000000011 %
b00000000000000000000000011111111 '
1(
1*
b00000000000000000100000000000011 .
b00000000000000000000000011111111 0
#4000000000
0!
0(
0*
#4200000000
b00000000000000000101000000000011 $
b00000000000000000011111111111111 &
b00000000000000000101000000000011 -
b00000000000000000011111111111111 /
#4500000000
1!
b00000000000000000101000000000011 %
b00000000000000000011111111111111 '
1(
1*
b00000000000000000101000000000011 .
b00000000000000000011111111111111 0
#5000000000
0!
0(
0*
#5200000000
b00000000000000000000000000100011 $
b00000000000000000000100101110101 &
b00000000000000000000000000100011 -
b00000000000000000000100101110101 /
#5500000000
1!
0#
b00000000000000000000000000100011 %
1(
1*
0,
b00000000000000000000000000100011 .
#6000000000
0!
0(
0*
#6200000000
#6500000000
1!
1(
1*
#7000000000
0!
0(
0*
#7200000000
1)
