sim/tb_pipeline_control.vcd
$date
  Thu Feb 18 16:27:43 2021
$end
$version
  GHDL v0
$end
$timescale
  1 fs
$end
$scope module standard $end
$upscope $end
$scope module std_logic_1164 $end
$upscope $end
$scope module numeric_std $end
$upscope $end
$scope module riscv_32i $end
$upscope $end
$scope module assembler $end
$upscope $end
$scope module helpers $end
$upscope $end
$scope module tb_helpers $end
$upscope $end
$scope module tb_pipeline_control $end
$var reg 1 ! clk $end
$var reg 1 " rst $end
$var reg 1 # bubble $end
$var reg 32 $ rs1_in[31:0] $end
$var reg 32 % rs2_in[31:0] $end
$var reg 32 & result_in[31:0] $end
$var reg 32 ' load_in[31:0] $end
$var reg 32 ( rs1_out[31:0] $end
$var reg 32 ) rs2_out[31:0] $end
$var reg 32 * inst_in[31:0] $end
$comment inst_enum_in is not handled $end
$var reg 32 + next_inst[31:0] $end
$comment next_inst_enum is not handled $end
$var reg 1 , tbclock $end
$var reg 1 - tbsimended $end
$scope module dut $end
$var reg 1 . clk $end
$var reg 1 / rst $end
$var reg 1 0 bubble $end
$var reg 32 1 rs1_in[31:0] $end
$var reg 32 2 rs2_in[31:0] $end
$var reg 32 3 result_in[31:0] $end
$var reg 32 4 load_in[31:0] $end
$var reg 32 5 rs1_out[31:0] $end
$var reg 32 6 rs2_out[31:0] $end
$var reg 32 7 inst_in[31:0] $end
$comment inst_enum_in is not handled $end
$var reg 32 8 next_inst[31:0] $end
$comment next_inst_enum is not handled $end
$var reg 1 9 bubble_rs1 $end
$var reg 1 : bubble_rs2 $end
$var reg 1 ; bypass_rs1 $end
$var reg 1 < bypass_rs2 $end
$upscope $end
$upscope $end
$enddefinitions $end
#0
0!
0"
0#
b00000000000000000000000000000000 $
b00000000000000000000000000000000 %
b00000000000000000000000000000000 &
b00000000000000000000000000000000 '
b00000000000000000000000000000000 (
b00000000000000000000000000000000 )
b00000000000000000000000000000000 *
b00000000000000000000000000000000 +
0,
0-
0.
0/
00
b00000000000000000000000000000000 1
b00000000000000000000000000000000 2
b00000000000000000000000000000000 3
b00000000000000000000000000000000 4
b00000000000000000000000000000000 5
b00000000000000000000000000000000 6
b00000000000000000000000000000000 7
b00000000000000000000000000000000 8
09
0:
0;
0<
#100000000
1"
1/
#200000000
b00000000000000000000000000000001 %
b00000000000000000000000000001010 &
b00000000000000000000000001100100 '
b00000000000000000000000000000001 )
b00000000000000000000101000000011 *
b00000000000010100000000010110011 +
b00000000000000000000000000000001 2
b00000000000000000000000000001010 3
b00000000000000000000000001100100 4
b00000000000000000000000000000001 6
b00000000000000000000101000000011 7
b00000000000010100000000010110011 8
#500000000
1!
1#
b00000000000000000000000001100100 (
1,
1.
10
b00000000000000000000000001100100 5
19
#1000000000
0!
0,
0.
#1200000000
b00000000000000000001100110000011 *
b00000001001100000111000001100011 +
b00000000000000000001100110000011 7
b00000001001100000111000001100011 8
#1500000000
1!
b00000000000000000000000000000000 (
b00000000000000000000000001100100 )
1,
1.
b00000000000000000000000000000000 5
b00000000000000000000000001100100 6
09
1:
#2000000000
0!
0,
0.
#2200000000
b00000000001000001000000110110011 *
b00000000000000011000000011100111 +
b00000000001000001000000110110011 7
b00000000000000011000000011100111 8
#2500000000
1!
0#
b00000000000000000000000000001010 (
b00000000000000000000000000000001 )
1,
1.
00
b00000000000000000000000000001010 5
b00000000000000000000000000000001 6
0:
1;
#3000000000
0!
0,
0.
#3200000000
b00000000000000000000101100110111 *
b00000001011000000001000000100011 +
b00000000000000000000101100110111 7
b00000001011000000001000000100011 8
#3500000000
1!
b00000000000000000000000000000000 (
b00000000000000000000000000001010 )
1,
1.
b00000000000000000000000000000000 5
b00000000000000000000000000001010 6
0;
1<
#4000000000
0!
0,
0.
#4200000000
b00000000000000000001100110000011 *
b00000000110100011111000001100011 +
b00000000000000000001100110000011 7
b00000000110100011111000001100011 8
#4500000000
1!
b00000000000000000000000000000001 )
1,
1.
b00000000000000000000000000000001 6
0<
#5000000000
0!
0,
0.
#5200000000
b00000000000000000010100110000011 *
b00000001001110011111100110110011 +
b00000000000000000010100110000011 7
b00000001001110011111100110110011 8
#5500000000
1!
1#
b00000000000000000000000001100100 (
b00000000000000000000000001100100 )
1,
1.
10
b00000000000000000000000001100100 5
b00000000000000000000000001100100 6
19
1:
#6000000000
0!
0,
0.
#6200000000
b00000000001000001000000110110011 *
b00000000000000001000000011100111 +
b00000000001000001000000110110011 7
b00000000000000001000000011100111 8
#6500000000
1!
0#
b00000000000000000000000000000000 (
b00000000000000000000000000000001 )
1,
1.
00
b00000000000000000000000000000000 5
b00000000000000000000000000000001 6
09
0:
#7000000000
0!
0,
0.
#7200000000
b00000000000000000000011110010111 *
b00000000111100000000000001100111 +
b00000000000000000000011110010111 7
b00000000111100000000000001100111 8
#7500000000
1!
1,
1.
#8000000000
0!
0,
0.
#8200000000
b00000000000000000011011110010011 *
b00000000111100000000000000000011 +
b00000000000000000011011110010011 7
b00000000111100000000000000000011 8
#8500000000
1!
1,
1.
#9000000000
0!
0,
0.
#9200000000
b00000000000000000100001010000011 *
b00000000010100000000000000010011 +
b00000000000000000100001010000011 7
b00000000010100000000000000010011 8
#9500000000
1!
1,
1.
#10000000000
0!
0,
0.
#10200000000
b00000000000000000001001010010011 *
b00000000010100101010000000110011 +
b00000000000000000001001010010011 7
b00000000010100101010000000110011 8
#10500000000
1!
b00000000000000000000000000001010 (
b00000000000000000000000000001010 )
1,
1.
b00000000000000000000000000001010 5
b00000000000000000000000000001010 6
1;
1<
#11000000000
0!
0,
0.
#11200000000
b00000000000000000000000001100011 *
b00000000000000000000000001100011 7
#11500000000
1!
b00000000000000000000000000000000 (
b00000000000000000000000000000001 )
1,
1.
b00000000000000000000000000000000 5
b00000000000000000000000000000001 6
0;
0<
#12000000000
0!
0,
0.
#12200000000
#12500000000
1!
1,
1.
#13000000000
0!
0,
0.
#13200000000
1-
