sim/tb_PC.vcd
$date
  Fri Feb  5 12:57:29 2021
$end
$version
  GHDL v0
$end
$timescale
  1 fs
$end
$scope module standard $end
$upscope $end
$scope module std_logic_1164 $end
$upscope $end
$scope module numeric_std $end
$upscope $end
$scope module helpers $end
$upscope $end
$scope module riscv_32i $end
$upscope $end
$scope module tb_helpers $end
$upscope $end
$scope module tb_pc $end
$var reg 1 ! clk $end
$var reg 1 " rst $end
$var reg 1 # branch $end
$var reg 32 $ pc_in[31:0] $end
$var reg 32 % pc_out[31:0] $end
$var reg 1 & tbclock $end
$var reg 1 ' tbsimended $end
$scope module dut $end
$var reg 1 ( clk $end
$var reg 1 ) rst $end
$var reg 1 * branch $end
$var reg 32 + pc_in[31:0] $end
$var reg 32 , pc_out[31:0] $end
$var reg 32 - reg[31:0] $end
$upscope $end
$upscope $end
$enddefinitions $end
#0
0!
0"
0#
b00000000000000000000000000000000 $
b00000000000000000000000000000000 %
0&
0'
0(
0)
0*
b00000000000000000000000000000000 +
b00000000000000000000000000000000 ,
b00000000000000000000000000000000 -
#100000000
1"
1)
#200000000
#500000000
1!
b00000000000000000000000000000100 %
1&
1(
b00000000000000000000000000000100 ,
b00000000000000000000000000000100 -
#1000000000
0!
0&
0(
#1200000000
#1500000000
1!
b00000000000000000000000000001000 %
1&
1(
b00000000000000000000000000001000 ,
b00000000000000000000000000001000 -
#2000000000
0!
0&
0(
#2200000000
#2500000000
1!
b00000000000000000000000000001100 %
1&
1(
b00000000000000000000000000001100 ,
b00000000000000000000000000001100 -
#3000000000
0!
0&
0(
#3200000000
#3500000000
1!
b00000000000000000000000000010000 %
1&
1(
b00000000000000000000000000010000 ,
b00000000000000000000000000010000 -
#4000000000
0!
0&
0(
#4200000000
#4500000000
1!
b00000000000000000000000000010100 %
1&
1(
b00000000000000000000000000010100 ,
b00000000000000000000000000010100 -
#5000000000
0!
0&
0(
#5200000000
#5500000000
1!
b00000000000000000000000000011000 %
1&
1(
b00000000000000000000000000011000 ,
b00000000000000000000000000011000 -
#6000000000
0!
0&
0(
#6200000000
#6500000000
1!
b00000000000000000000000000011100 %
1&
1(
b00000000000000000000000000011100 ,
b00000000000000000000000000011100 -
#7000000000
0!
0&
0(
#7200000000
#7500000000
1!
b00000000000000000000000000100000 %
1&
1(
b00000000000000000000000000100000 ,
b00000000000000000000000000100000 -
#8000000000
0!
0&
0(
#8200000000
#8500000000
1!
b00000000000000000000000000100100 %
1&
1(
b00000000000000000000000000100100 ,
b00000000000000000000000000100100 -
#9000000000
0!
0&
0(
#9200000000
#9500000000
1!
b00000000000000000000000000101000 %
1&
1(
b00000000000000000000000000101000 ,
b00000000000000000000000000101000 -
#10000000000
0!
0&
0(
#10200000000
#10500000000
1!
b00000000000000000000000000101100 %
1&
1(
b00000000000000000000000000101100 ,
b00000000000000000000000000101100 -
#11000000000
0!
0&
0(
#11200000000
#11500000000
1!
b00000000000000000000000000110000 %
1&
1(
b00000000000000000000000000110000 ,
b00000000000000000000000000110000 -
#12000000000
0!
0&
0(
#12200000000
#12500000000
1!
b00000000000000000000000000110100 %
1&
1(
b00000000000000000000000000110100 ,
b00000000000000000000000000110100 -
#13000000000
0!
0&
0(
#13200000000
#13500000000
1!
b00000000000000000000000000111000 %
1&
1(
b00000000000000000000000000111000 ,
b00000000000000000000000000111000 -
#14000000000
0!
0&
0(
#14200000000
#14500000000
1!
b00000000000000000000000000111100 %
1&
1(
b00000000000000000000000000111100 ,
b00000000000000000000000000111100 -
#15000000000
0!
0&
0(
#15200000000
#15500000000
1!
b00000000000000000000000001000000 %
1&
1(
b00000000000000000000000001000000 ,
b00000000000000000000000001000000 -
#16000000000
0!
0&
0(
#16200000000
#16500000000
1!
b00000000000000000000000001000100 %
1&
1(
b00000000000000000000000001000100 ,
b00000000000000000000000001000100 -
#17000000000
0!
0&
0(
#17200000000
#17500000000
1!
b00000000000000000000000001001000 %
1&
1(
b00000000000000000000000001001000 ,
b00000000000000000000000001001000 -
#18000000000
0!
0&
0(
#18200000000
#18500000000
1!
b00000000000000000000000001001100 %
1&
1(
b00000000000000000000000001001100 ,
b00000000000000000000000001001100 -
#19000000000
0!
0&
0(
#19200000000
#19500000000
1!
b00000000000000000000000001010000 %
1&
1(
b00000000000000000000000001010000 ,
b00000000000000000000000001010000 -
#20000000000
0!
0&
0(
#20200000000
#20500000000
1!
b00000000000000000000000001010100 %
1&
1(
b00000000000000000000000001010100 ,
b00000000000000000000000001010100 -
#21000000000
0!
0&
0(
#21200000000
#21500000000
1!
b00000000000000000000000001011000 %
1&
1(
b00000000000000000000000001011000 ,
b00000000000000000000000001011000 -
#22000000000
0!
0&
0(
#22200000000
#22500000000
1!
b00000000000000000000000001011100 %
1&
1(
b00000000000000000000000001011100 ,
b00000000000000000000000001011100 -
#23000000000
0!
0&
0(
#23200000000
#23500000000
1!
b00000000000000000000000001100000 %
1&
1(
b00000000000000000000000001100000 ,
b00000000000000000000000001100000 -
#24000000000
0!
0&
0(
#24200000000
#24500000000
1!
b00000000000000000000000001100100 %
1&
1(
b00000000000000000000000001100100 ,
b00000000000000000000000001100100 -
#25000000000
0!
0&
0(
#25200000000
#25500000000
1!
b00000000000000000000000001101000 %
1&
1(
b00000000000000000000000001101000 ,
b00000000000000000000000001101000 -
#26000000000
0!
0&
0(
#26200000000
#26500000000
1!
b00000000000000000000000001101100 %
1&
1(
b00000000000000000000000001101100 ,
b00000000000000000000000001101100 -
#27000000000
0!
0&
0(
#27200000000
#27500000000
1!
b00000000000000000000000001110000 %
1&
1(
b00000000000000000000000001110000 ,
b00000000000000000000000001110000 -
#28000000000
0!
0&
0(
#28200000000
#28500000000
1!
b00000000000000000000000001110100 %
1&
1(
b00000000000000000000000001110100 ,
b00000000000000000000000001110100 -
#29000000000
0!
0&
0(
#29200000000
#29500000000
1!
b00000000000000000000000001111000 %
1&
1(
b00000000000000000000000001111000 ,
b00000000000000000000000001111000 -
#30000000000
0!
0&
0(
#30200000000
#30500000000
1!
b00000000000000000000000001111100 %
1&
1(
b00000000000000000000000001111100 ,
b00000000000000000000000001111100 -
#31000000000
0!
0&
0(
#31200000000
#31500000000
1!
b00000000000000000000000010000000 %
1&
1(
b00000000000000000000000010000000 ,
b00000000000000000000000010000000 -
#32000000000
0!
0&
0(
#32200000000
#32500000000
1!
b00000000000000000000000010000100 %
1&
1(
b00000000000000000000000010000100 ,
b00000000000000000000000010000100 -
#33000000000
0!
0&
0(
#33200000000
#33500000000
1!
b00000000000000000000000010001000 %
1&
1(
b00000000000000000000000010001000 ,
b00000000000000000000000010001000 -
#34000000000
0!
0&
0(
#34200000000
#34500000000
1!
b00000000000000000000000010001100 %
1&
1(
b00000000000000000000000010001100 ,
b00000000000000000000000010001100 -
#35000000000
0!
0&
0(
#35200000000
#35500000000
1!
b00000000000000000000000010010000 %
1&
1(
b00000000000000000000000010010000 ,
b00000000000000000000000010010000 -
#36000000000
0!
0&
0(
#36200000000
#36500000000
1!
b00000000000000000000000010010100 %
1&
1(
b00000000000000000000000010010100 ,
b00000000000000000000000010010100 -
#37000000000
0!
0&
0(
#37200000000
#37500000000
1!
b00000000000000000000000010011000 %
1&
1(
b00000000000000000000000010011000 ,
b00000000000000000000000010011000 -
#38000000000
0!
0&
0(
#38200000000
#38500000000
1!
b00000000000000000000000010011100 %
1&
1(
b00000000000000000000000010011100 ,
b00000000000000000000000010011100 -
#39000000000
0!
0&
0(
#39200000000
#39500000000
1!
b00000000000000000000000010100000 %
1&
1(
b00000000000000000000000010100000 ,
b00000000000000000000000010100000 -
#40000000000
0!
0&
0(
#40200000000
#40500000000
1!
b00000000000000000000000010100100 %
1&
1(
b00000000000000000000000010100100 ,
b00000000000000000000000010100100 -
#41000000000
0!
0&
0(
#41200000000
#41500000000
1!
b00000000000000000000000010101000 %
1&
1(
b00000000000000000000000010101000 ,
b00000000000000000000000010101000 -
#42000000000
0!
0&
0(
#42200000000
#42500000000
1!
b00000000000000000000000010101100 %
1&
1(
b00000000000000000000000010101100 ,
b00000000000000000000000010101100 -
#43000000000
0!
0&
0(
#43200000000
#43500000000
1!
b00000000000000000000000010110000 %
1&
1(
b00000000000000000000000010110000 ,
b00000000000000000000000010110000 -
#44000000000
0!
0&
0(
#44200000000
#44500000000
1!
b00000000000000000000000010110100 %
1&
1(
b00000000000000000000000010110100 ,
b00000000000000000000000010110100 -
#45000000000
0!
0&
0(
#45200000000
#45500000000
1!
b00000000000000000000000010111000 %
1&
1(
b00000000000000000000000010111000 ,
b00000000000000000000000010111000 -
#46000000000
0!
0&
0(
#46200000000
#46500000000
1!
b00000000000000000000000010111100 %
1&
1(
b00000000000000000000000010111100 ,
b00000000000000000000000010111100 -
#47000000000
0!
0&
0(
#47200000000
#47500000000
1!
b00000000000000000000000011000000 %
1&
1(
b00000000000000000000000011000000 ,
b00000000000000000000000011000000 -
#48000000000
0!
0&
0(
#48200000000
#48500000000
1!
b00000000000000000000000011000100 %
1&
1(
b00000000000000000000000011000100 ,
b00000000000000000000000011000100 -
#49000000000
0!
0&
0(
#49200000000
#49500000000
1!
b00000000000000000000000011001000 %
1&
1(
b00000000000000000000000011001000 ,
b00000000000000000000000011001000 -
#50000000000
0!
0&
0(
#50200000000
#50500000000
1!
b00000000000000000000000011001100 %
1&
1(
b00000000000000000000000011001100 ,
b00000000000000000000000011001100 -
#51000000000
0!
0&
0(
#51200000000
#51500000000
1!
b00000000000000000000000011010000 %
1&
1(
b00000000000000000000000011010000 ,
b00000000000000000000000011010000 -
#52000000000
0!
0&
0(
#52200000000
1#
b00000000000000001100111110000110 $
1*
b00000000000000001100111110000110 +
#52500000000
1!
b00000000000000001100111110000110 %
1&
1(
b00000000000000001100111110000110 ,
b00000000000000001100111110000110 -
#53000000000
0!
0&
0(
#53200000000
0#
0*
#53500000000
1!
b00000000000000001100111110001010 %
1&
1(
b00000000000000001100111110001010 ,
b00000000000000001100111110001010 -
#54000000000
0!
0&
0(
#54200000000
#54500000000
1!
b00000000000000001100111110001110 %
1&
1(
b00000000000000001100111110001110 ,
b00000000000000001100111110001110 -
#55000000000
0!
0&
0(
#55200000000
0"
0)
#55500000000
1!
b00000000000000000000000000000000 %
1&
1(
b00000000000000000000000000000000 ,
b00000000000000000000000000000000 -
#56000000000
0!
0&
0(
#56200000000
1"
1)
#56500000000
1!
b00000000000000000000000000000100 %
1&
1(
b00000000000000000000000000000100 ,
b00000000000000000000000000000100 -
#57000000000
0!
0&
0(
#57200000000
#57500000000
1!
b00000000000000000000000000001000 %
1&
1(
b00000000000000000000000000001000 ,
b00000000000000000000000000001000 -
#58000000000
0!
0&
0(
#58200000000
#58500000000
1!
b00000000000000000000000000001100 %
1&
1(
b00000000000000000000000000001100 ,
b00000000000000000000000000001100 -
#59000000000
0!
0&
0(
#59200000000
#59500000000
1!
b00000000000000000000000000010000 %
1&
1(
b00000000000000000000000000010000 ,
b00000000000000000000000000010000 -
#60000000000
0!
0&
0(
#60200000000
#60500000000
1!
b00000000000000000000000000010100 %
1&
1(
b00000000000000000000000000010100 ,
b00000000000000000000000000010100 -
#61000000000
0!
0&
0(
#61200000000
#61500000000
1!
b00000000000000000000000000011000 %
1&
1(
b00000000000000000000000000011000 ,
b00000000000000000000000000011000 -
#62000000000
0!
0&
0(
#62200000000
#62500000000
1!
b00000000000000000000000000011100 %
1&
1(
b00000000000000000000000000011100 ,
b00000000000000000000000000011100 -
#63000000000
0!
0&
0(
#63200000000
#63500000000
1!
b00000000000000000000000000100000 %
1&
1(
b00000000000000000000000000100000 ,
b00000000000000000000000000100000 -
#64000000000
0!
0&
0(
#64200000000
#64500000000
1!
b00000000000000000000000000100100 %
1&
1(
b00000000000000000000000000100100 ,
b00000000000000000000000000100100 -
#65000000000
0!
0&
0(
#65200000000
#65500000000
1!
b00000000000000000000000000101000 %
1&
1(
b00000000000000000000000000101000 ,
b00000000000000000000000000101000 -
#66000000000
0!
0&
0(
#66200000000
#66500000000
1!
b00000000000000000000000000101100 %
1&
1(
b00000000000000000000000000101100 ,
b00000000000000000000000000101100 -
#67000000000
0!
0&
0(
#67200000000
#67500000000
1!
b00000000000000000000000000110000 %
1&
1(
b00000000000000000000000000110000 ,
b00000000000000000000000000110000 -
#68000000000
0!
0&
0(
#68200000000
#68500000000
1!
b00000000000000000000000000110100 %
1&
1(
b00000000000000000000000000110100 ,
b00000000000000000000000000110100 -
#69000000000
0!
0&
0(
#69200000000
#69500000000
1!
b00000000000000000000000000111000 %
1&
1(
b00000000000000000000000000111000 ,
b00000000000000000000000000111000 -
#70000000000
0!
0&
0(
#70200000000
#70500000000
1!
b00000000000000000000000000111100 %
1&
1(
b00000000000000000000000000111100 ,
b00000000000000000000000000111100 -
#71000000000
0!
0&
0(
#71200000000
#71500000000
1!
b00000000000000000000000001000000 %
1&
1(
b00000000000000000000000001000000 ,
b00000000000000000000000001000000 -
#72000000000
0!
0&
0(
#72200000000
#72500000000
1!
b00000000000000000000000001000100 %
1&
1(
b00000000000000000000000001000100 ,
b00000000000000000000000001000100 -
#73000000000
0!
0&
0(
#73200000000
#73500000000
1!
b00000000000000000000000001001000 %
1&
1(
b00000000000000000000000001001000 ,
b00000000000000000000000001001000 -
#74000000000
0!
0&
0(
#74200000000
#74500000000
1!
b00000000000000000000000001001100 %
1&
1(
b00000000000000000000000001001100 ,
b00000000000000000000000001001100 -
#75000000000
0!
0&
0(
#75200000000
#75500000000
1!
b00000000000000000000000001010000 %
1&
1(
b00000000000000000000000001010000 ,
b00000000000000000000000001010000 -
#76000000000
0!
0&
0(
#76200000000
#76500000000
1!
b00000000000000000000000001010100 %
1&
1(
b00000000000000000000000001010100 ,
b00000000000000000000000001010100 -
#77000000000
0!
0&
0(
#77200000000
#77500000000
1!
b00000000000000000000000001011000 %
1&
1(
b00000000000000000000000001011000 ,
b00000000000000000000000001011000 -
#78000000000
0!
0&
0(
#78200000000
#78500000000
1!
b00000000000000000000000001011100 %
1&
1(
b00000000000000000000000001011100 ,
b00000000000000000000000001011100 -
#79000000000
0!
0&
0(
#79200000000
#79500000000
1!
b00000000000000000000000001100000 %
1&
1(
b00000000000000000000000001100000 ,
b00000000000000000000000001100000 -
#80000000000
0!
0&
0(
#80200000000
#80500000000
1!
b00000000000000000000000001100100 %
1&
1(
b00000000000000000000000001100100 ,
b00000000000000000000000001100100 -
#81000000000
0!
0&
0(
#81200000000
#81500000000
1!
b00000000000000000000000001101000 %
1&
1(
b00000000000000000000000001101000 ,
b00000000000000000000000001101000 -
#82000000000
0!
0&
0(
#82200000000
#82500000000
1!
b00000000000000000000000001101100 %
1&
1(
b00000000000000000000000001101100 ,
b00000000000000000000000001101100 -
#83000000000
0!
0&
0(
#83200000000
#83500000000
1!
b00000000000000000000000001110000 %
1&
1(
b00000000000000000000000001110000 ,
b00000000000000000000000001110000 -
#84000000000
0!
0&
0(
#84200000000
#84500000000
1!
b00000000000000000000000001110100 %
1&
1(
b00000000000000000000000001110100 ,
b00000000000000000000000001110100 -
#85000000000
0!
0&
0(
#85200000000
#85500000000
1!
b00000000000000000000000001111000 %
1&
1(
b00000000000000000000000001111000 ,
b00000000000000000000000001111000 -
#86000000000
0!
0&
0(
#86200000000
#86500000000
1!
b00000000000000000000000001111100 %
1&
1(
b00000000000000000000000001111100 ,
b00000000000000000000000001111100 -
#87000000000
0!
0&
0(
#87200000000
#87500000000
1!
b00000000000000000000000010000000 %
1&
1(
b00000000000000000000000010000000 ,
b00000000000000000000000010000000 -
#88000000000
0!
0&
0(
#88200000000
#88500000000
1!
b00000000000000000000000010000100 %
1&
1(
b00000000000000000000000010000100 ,
b00000000000000000000000010000100 -
#89000000000
0!
0&
0(
#89200000000
#89500000000
1!
b00000000000000000000000010001000 %
1&
1(
b00000000000000000000000010001000 ,
b00000000000000000000000010001000 -
#90000000000
0!
0&
0(
#90200000000
#90500000000
1!
b00000000000000000000000010001100 %
1&
1(
b00000000000000000000000010001100 ,
b00000000000000000000000010001100 -
#91000000000
0!
0&
0(
#91200000000
#91500000000
1!
b00000000000000000000000010010000 %
1&
1(
b00000000000000000000000010010000 ,
b00000000000000000000000010010000 -
#92000000000
0!
0&
0(
#92200000000
#92500000000
1!
b00000000000000000000000010010100 %
1&
1(
b00000000000000000000000010010100 ,
b00000000000000000000000010010100 -
#93000000000
0!
0&
0(
#93200000000
#93500000000
1!
b00000000000000000000000010011000 %
1&
1(
b00000000000000000000000010011000 ,
b00000000000000000000000010011000 -
#94000000000
0!
0&
0(
#94200000000
#94500000000
1!
b00000000000000000000000010011100 %
1&
1(
b00000000000000000000000010011100 ,
b00000000000000000000000010011100 -
#95000000000
0!
0&
0(
#95200000000
#95500000000
1!
b00000000000000000000000010100000 %
1&
1(
b00000000000000000000000010100000 ,
b00000000000000000000000010100000 -
#96000000000
0!
0&
0(
#96200000000
#96500000000
1!
b00000000000000000000000010100100 %
1&
1(
b00000000000000000000000010100100 ,
b00000000000000000000000010100100 -
#97000000000
0!
0&
0(
#97200000000
#97500000000
1!
b00000000000000000000000010101000 %
1&
1(
b00000000000000000000000010101000 ,
b00000000000000000000000010101000 -
#98000000000
0!
0&
0(
#98200000000
#98500000000
1!
b00000000000000000000000010101100 %
1&
1(
b00000000000000000000000010101100 ,
b00000000000000000000000010101100 -
#99000000000
0!
0&
0(
#99200000000
#99500000000
1!
b00000000000000000000000010110000 %
1&
1(
b00000000000000000000000010110000 ,
b00000000000000000000000010110000 -
#100000000000
0!
0&
0(
#100200000000
#100500000000
1!
b00000000000000000000000010110100 %
1&
1(
b00000000000000000000000010110100 ,
b00000000000000000000000010110100 -
#101000000000
0!
0&
0(
#101200000000
1'
