sim/tb_reg_32.vcd
$date
  Thu Feb  4 23:33:54 2021
$end
$version
  GHDL v0
$end
$timescale
  1 fs
$end
$scope module standard $end
$upscope $end
$scope module std_logic_1164 $end
$upscope $end
$scope module numeric_std $end
$upscope $end
$scope module riscv_32i $end
$upscope $end
$scope module assembler $end
$upscope $end
$scope module helpers $end
$upscope $end
$scope module tb_helpers $end
$upscope $end
$scope module tb_reg_32 $end
$var reg 1 ! clk $end
$var reg 1 " rst $end
$var reg 32 # d_in[31:0] $end
$var reg 32 $ d_out0[31:0] $end
$var reg 32 % d_out1[31:0] $end
$var reg 5 & adre0[4:0] $end
$var reg 5 ' adre1[4:0] $end
$var reg 5 ( adwr0[4:0] $end
$var reg 1 ) tbclock $end
$var reg 1 * tbsimended $end
$scope module dut $end
$var reg 1 + clk $end
$var reg 1 , rst $end
$var reg 32 - d_in[31:0] $end
$var reg 32 . d_out0[31:0] $end
$var reg 32 / d_out1[31:0] $end
$var reg 5 0 adre0[4:0] $end
$var reg 5 1 adre1[4:0] $end
$var reg 5 2 adwr0[4:0] $end
$comment reg is not handled $end
$upscope $end
$upscope $end
$enddefinitions $end
#0
0!
0"
b00000000000000000000000000000000 #
b00000000000000000000000000000000 $
b00000000000000000000000000000000 %
b00000 &
b00000 '
b00000 (
0)
0*
0+
0,
b00000000000000000000000000000000 -
b00000000000000000000000000000000 .
b00000000000000000000000000000000 /
b00000 0
b00000 1
b00000 2
#100000000
1"
1,
#200000000
b00000000000000000101111010010110 #
b00000000000000000101111010010110 -
#500000000
1!
1)
1+
#1000000000
0!
0)
0+
#1200000000
b00000000000000000000000000000001 #
b00001 (
b00000000000000000000000000000001 -
b00001 2
#1500000000
1!
1)
1+
#2000000000
0!
0)
0+
#2200000000
b00000000000000000000000000000010 #
b00001 &
b00001 '
b00010 (
b00000000000000000000000000000010 -
b00001 0
b00001 1
b00010 2
#2500000000
1!
b00000000000000000000000000000001 $
b00000000000000000000000000000001 %
1)
1+
b00000000000000000000000000000001 .
b00000000000000000000000000000001 /
#3000000000
0!
0)
0+
#3200000000
b00000000000000000000000000000011 #
b00010 &
b00010 '
b00011 (
b00000000000000000000000000000011 -
b00010 0
b00010 1
b00011 2
#3500000000
1!
b00000000000000000000000000000010 $
b00000000000000000000000000000010 %
1)
1+
b00000000000000000000000000000010 .
b00000000000000000000000000000010 /
#4000000000
0!
0)
0+
#4200000000
b00000000000000000000000000000100 #
b00011 &
b00011 '
b00100 (
b00000000000000000000000000000100 -
b00011 0
b00011 1
b00100 2
#4500000000
1!
b00000000000000000000000000000011 $
b00000000000000000000000000000011 %
1)
1+
b00000000000000000000000000000011 .
b00000000000000000000000000000011 /
#5000000000
0!
0)
0+
#5200000000
b00000000000000000000000000000101 #
b00100 &
b00100 '
b00101 (
b00000000000000000000000000000101 -
b00100 0
b00100 1
b00101 2
#5500000000
1!
b00000000000000000000000000000100 $
b00000000000000000000000000000100 %
1)
1+
b00000000000000000000000000000100 .
b00000000000000000000000000000100 /
#6000000000
0!
0)
0+
#6200000000
b00000000000000000000000000000110 #
b00101 &
b00101 '
b00110 (
b00000000000000000000000000000110 -
b00101 0
b00101 1
b00110 2
#6500000000
1!
b00000000000000000000000000000101 $
b00000000000000000000000000000101 %
1)
1+
b00000000000000000000000000000101 .
b00000000000000000000000000000101 /
#7000000000
0!
0)
0+
#7200000000
b00000000000000000000000000000111 #
b00110 &
b00110 '
b00111 (
b00000000000000000000000000000111 -
b00110 0
b00110 1
b00111 2
#7500000000
1!
b00000000000000000000000000000110 $
b00000000000000000000000000000110 %
1)
1+
b00000000000000000000000000000110 .
b00000000000000000000000000000110 /
#8000000000
0!
0)
0+
#8200000000
b00000000000000000000000000001000 #
b00111 &
b00111 '
b01000 (
b00000000000000000000000000001000 -
b00111 0
b00111 1
b01000 2
#8500000000
1!
b00000000000000000000000000000111 $
b00000000000000000000000000000111 %
1)
1+
b00000000000000000000000000000111 .
b00000000000000000000000000000111 /
#9000000000
0!
0)
0+
#9200000000
b00000000000000000000000000001001 #
b01000 &
b01000 '
b01001 (
b00000000000000000000000000001001 -
b01000 0
b01000 1
b01001 2
#9500000000
1!
b00000000000000000000000000001000 $
b00000000000000000000000000001000 %
1)
1+
b00000000000000000000000000001000 .
b00000000000000000000000000001000 /
#10000000000
0!
0)
0+
#10200000000
b00000000000000000000000000001010 #
b01001 &
b01001 '
b01010 (
b00000000000000000000000000001010 -
b01001 0
b01001 1
b01010 2
#10500000000
1!
b00000000000000000000000000001001 $
b00000000000000000000000000001001 %
1)
1+
b00000000000000000000000000001001 .
b00000000000000000000000000001001 /
#11000000000
0!
0)
0+
#11200000000
b00000000000000000000000000001011 #
b01010 &
b01010 '
b01011 (
b00000000000000000000000000001011 -
b01010 0
b01010 1
b01011 2
#11500000000
1!
b00000000000000000000000000001010 $
b00000000000000000000000000001010 %
1)
1+
b00000000000000000000000000001010 .
b00000000000000000000000000001010 /
#12000000000
0!
0)
0+
#12200000000
b00000000000000000000000000001100 #
b01011 &
b01011 '
b01100 (
b00000000000000000000000000001100 -
b01011 0
b01011 1
b01100 2
#12500000000
1!
b00000000000000000000000000001011 $
b00000000000000000000000000001011 %
1)
1+
b00000000000000000000000000001011 .
b00000000000000000000000000001011 /
#13000000000
0!
0)
0+
#13200000000
b00000000000000000000000000001101 #
b01100 &
b01100 '
b01101 (
b00000000000000000000000000001101 -
b01100 0
b01100 1
b01101 2
#13500000000
1!
b00000000000000000000000000001100 $
b00000000000000000000000000001100 %
1)
1+
b00000000000000000000000000001100 .
b00000000000000000000000000001100 /
#14000000000
0!
0)
0+
#14200000000
b00000000000000000000000000001110 #
b01101 &
b01101 '
b01110 (
b00000000000000000000000000001110 -
b01101 0
b01101 1
b01110 2
#14500000000
1!
b00000000000000000000000000001101 $
b00000000000000000000000000001101 %
1)
1+
b00000000000000000000000000001101 .
b00000000000000000000000000001101 /
#15000000000
0!
0)
0+
#15200000000
b00000000000000000000000000001111 #
b01110 &
b01110 '
b01111 (
b00000000000000000000000000001111 -
b01110 0
b01110 1
b01111 2
#15500000000
1!
b00000000000000000000000000001110 $
b00000000000000000000000000001110 %
1)
1+
b00000000000000000000000000001110 .
b00000000000000000000000000001110 /
#16000000000
0!
0)
0+
#16200000000
b00000000000000000000000000010000 #
b01111 &
b01111 '
b10000 (
b00000000000000000000000000010000 -
b01111 0
b01111 1
b10000 2
#16500000000
1!
b00000000000000000000000000001111 $
b00000000000000000000000000001111 %
1)
1+
b00000000000000000000000000001111 .
b00000000000000000000000000001111 /
#17000000000
0!
0)
0+
#17200000000
b00000000000000000000000000010001 #
b10000 &
b10000 '
b10001 (
b00000000000000000000000000010001 -
b10000 0
b10000 1
b10001 2
#17500000000
1!
b00000000000000000000000000010000 $
b00000000000000000000000000010000 %
1)
1+
b00000000000000000000000000010000 .
b00000000000000000000000000010000 /
#18000000000
0!
0)
0+
#18200000000
b00000000000000000000000000010010 #
b10001 &
b10001 '
b10010 (
b00000000000000000000000000010010 -
b10001 0
b10001 1
b10010 2
#18500000000
1!
b00000000000000000000000000010001 $
b00000000000000000000000000010001 %
1)
1+
b00000000000000000000000000010001 .
b00000000000000000000000000010001 /
#19000000000
0!
0)
0+
#19200000000
b00000000000000000000000000010011 #
b10010 &
b10010 '
b10011 (
b00000000000000000000000000010011 -
b10010 0
b10010 1
b10011 2
#19500000000
1!
b00000000000000000000000000010010 $
b00000000000000000000000000010010 %
1)
1+
b00000000000000000000000000010010 .
b00000000000000000000000000010010 /
#20000000000
0!
0)
0+
#20200000000
b00000000000000000000000000010100 #
b10011 &
b10011 '
b10100 (
b00000000000000000000000000010100 -
b10011 0
b10011 1
b10100 2
#20500000000
1!
b00000000000000000000000000010011 $
b00000000000000000000000000010011 %
1)
1+
b00000000000000000000000000010011 .
b00000000000000000000000000010011 /
#21000000000
0!
0)
0+
#21200000000
b00000000000000000000000000010101 #
b10100 &
b10100 '
b10101 (
b00000000000000000000000000010101 -
b10100 0
b10100 1
b10101 2
#21500000000
1!
b00000000000000000000000000010100 $
b00000000000000000000000000010100 %
1)
1+
b00000000000000000000000000010100 .
b00000000000000000000000000010100 /
#22000000000
0!
0)
0+
#22200000000
b00000000000000000000000000010110 #
b10101 &
b10101 '
b10110 (
b00000000000000000000000000010110 -
b10101 0
b10101 1
b10110 2
#22500000000
1!
b00000000000000000000000000010101 $
b00000000000000000000000000010101 %
1)
1+
b00000000000000000000000000010101 .
b00000000000000000000000000010101 /
#23000000000
0!
0)
0+
#23200000000
b00000000000000000000000000010111 #
b10110 &
b10110 '
b10111 (
b00000000000000000000000000010111 -
b10110 0
b10110 1
b10111 2
#23500000000
1!
b00000000000000000000000000010110 $
b00000000000000000000000000010110 %
1)
1+
b00000000000000000000000000010110 .
b00000000000000000000000000010110 /
#24000000000
0!
0)
0+
#24200000000
b00000000000000000000000000011000 #
b10111 &
b10111 '
b11000 (
b00000000000000000000000000011000 -
b10111 0
b10111 1
b11000 2
#24500000000
1!
b00000000000000000000000000010111 $
b00000000000000000000000000010111 %
1)
1+
b00000000000000000000000000010111 .
b00000000000000000000000000010111 /
#25000000000
0!
0)
0+
#25200000000
b00000000000000000000000000011001 #
b11000 &
b11000 '
b11001 (
b00000000000000000000000000011001 -
b11000 0
b11000 1
b11001 2
#25500000000
1!
b00000000000000000000000000011000 $
b00000000000000000000000000011000 %
1)
1+
b00000000000000000000000000011000 .
b00000000000000000000000000011000 /
#26000000000
0!
0)
0+
#26200000000
b00000000000000000000000000011010 #
b11001 &
b11001 '
b11010 (
b00000000000000000000000000011010 -
b11001 0
b11001 1
b11010 2
#26500000000
1!
b00000000000000000000000000011001 $
b00000000000000000000000000011001 %
1)
1+
b00000000000000000000000000011001 .
b00000000000000000000000000011001 /
#27000000000
0!
0)
0+
#27200000000
b00000000000000000000000000011011 #
b11010 &
b11010 '
b11011 (
b00000000000000000000000000011011 -
b11010 0
b11010 1
b11011 2
#27500000000
1!
b00000000000000000000000000011010 $
b00000000000000000000000000011010 %
1)
1+
b00000000000000000000000000011010 .
b00000000000000000000000000011010 /
#28000000000
0!
0)
0+
#28200000000
b00000000000000000000000000011100 #
b11011 &
b11011 '
b11100 (
b00000000000000000000000000011100 -
b11011 0
b11011 1
b11100 2
#28500000000
1!
b00000000000000000000000000011011 $
b00000000000000000000000000011011 %
1)
1+
b00000000000000000000000000011011 .
b00000000000000000000000000011011 /
#29000000000
0!
0)
0+
#29200000000
b00000000000000000000000000011101 #
b11100 &
b11100 '
b11101 (
b00000000000000000000000000011101 -
b11100 0
b11100 1
b11101 2
#29500000000
1!
b00000000000000000000000000011100 $
b00000000000000000000000000011100 %
1)
1+
b00000000000000000000000000011100 .
b00000000000000000000000000011100 /
#30000000000
0!
0)
0+
#30200000000
b00000000000000000000000000011110 #
b11101 &
b11101 '
b11110 (
b00000000000000000000000000011110 -
b11101 0
b11101 1
b11110 2
#30500000000
1!
b00000000000000000000000000011101 $
b00000000000000000000000000011101 %
1)
1+
b00000000000000000000000000011101 .
b00000000000000000000000000011101 /
#31000000000
0!
0)
0+
#31200000000
b11110 &
b11110 '
b11110 0
b11110 1
#31500000000
1!
b00000000000000000000000000011110 $
b00000000000000000000000000011110 %
1)
1+
b00000000000000000000000000011110 .
b00000000000000000000000000011110 /
#32000000000
0!
0)
0+
#32200000000
#32500000000
1!
1)
1+
#33000000000
0!
0)
0+
#33200000000
0"
b00000 (
0,
b00000 2
#33500000000
1!
b00000000000000000000000000000000 $
b00000000000000000000000000000000 %
1)
1+
b00000000000000000000000000000000 .
b00000000000000000000000000000000 /
#34000000000
0!
0)
0+
#34200000000
1"
1,
#34500000000
1!
1)
1+
#35000000000
0!
0)
0+
#35200000000
b00000 &
b00000 0
#35500000000
1!
1)
1+
#36000000000
0!
0)
0+
#36200000000
b00001 &
b00001 0
#36500000000
1!
1)
1+
#37000000000
0!
0)
0+
#37200000000
b00010 &
b00010 0
#37500000000
1!
1)
1+
#38000000000
0!
0)
0+
#38200000000
b00011 &
b00011 0
#38500000000
1!
1)
1+
#39000000000
0!
0)
0+
#39200000000
b00100 &
b00100 0
#39500000000
1!
1)
1+
#40000000000
0!
0)
0+
#40200000000
b00101 &
b00101 0
#40500000000
1!
1)
1+
#41000000000
0!
0)
0+
#41200000000
b00110 &
b00110 0
#41500000000
1!
1)
1+
#42000000000
0!
0)
0+
#42200000000
b00111 &
b00111 0
#42500000000
1!
1)
1+
#43000000000
0!
0)
0+
#43200000000
b01000 &
b01000 0
#43500000000
1!
1)
1+
#44000000000
0!
0)
0+
#44200000000
b01001 &
b01001 0
#44500000000
1!
1)
1+
#45000000000
0!
0)
0+
#45200000000
b01010 &
b01010 0
#45500000000
1!
1)
1+
#46000000000
0!
0)
0+
#46200000000
b01011 &
b01011 0
#46500000000
1!
1)
1+
#47000000000
0!
0)
0+
#47200000000
b01100 &
b01100 0
#47500000000
1!
1)
1+
#48000000000
0!
0)
0+
#48200000000
b01101 &
b01101 0
#48500000000
1!
1)
1+
#49000000000
0!
0)
0+
#49200000000
b01110 &
b01110 0
#49500000000
1!
1)
1+
#50000000000
0!
0)
0+
#50200000000
b01111 &
b01111 0
#50500000000
1!
1)
1+
#51000000000
0!
0)
0+
#51200000000
b10000 &
b10000 0
#51500000000
1!
1)
1+
#52000000000
0!
0)
0+
#52200000000
b10001 &
b10001 0
#52500000000
1!
1)
1+
#53000000000
0!
0)
0+
#53200000000
b10010 &
b10010 0
#53500000000
1!
1)
1+
#54000000000
0!
0)
0+
#54200000000
b10011 &
b10011 0
#54500000000
1!
1)
1+
#55000000000
0!
0)
0+
#55200000000
b10100 &
b10100 0
#55500000000
1!
1)
1+
#56000000000
0!
0)
0+
#56200000000
b10101 &
b10101 0
#56500000000
1!
1)
1+
#57000000000
0!
0)
0+
#57200000000
b10110 &
b10110 0
#57500000000
1!
1)
1+
#58000000000
0!
0)
0+
#58200000000
b10111 &
b10111 0
#58500000000
1!
1)
1+
#59000000000
0!
0)
0+
#59200000000
b11000 &
b11000 0
#59500000000
1!
1)
1+
#60000000000
0!
0)
0+
#60200000000
b11001 &
b11001 0
#60500000000
1!
1)
1+
#61000000000
0!
0)
0+
#61200000000
b11010 &
b11010 0
#61500000000
1!
1)
1+
#62000000000
0!
0)
0+
#62200000000
b11011 &
b11011 0
#62500000000
1!
1)
1+
#63000000000
0!
0)
0+
#63200000000
b11100 &
b11100 0
#63500000000
1!
1)
1+
#64000000000
0!
0)
0+
#64200000000
b11101 &
b11101 0
#64500000000
1!
1)
1+
#65000000000
0!
0)
0+
#65200000000
b11110 &
b11110 0
#65500000000
1!
1)
1+
#66000000000
0!
0)
0+
#66200000000
b11111 &
b11111 0
#66500000000
1!
1)
1+
#67000000000
0!
0)
0+
#67200000000
1*
